Date,avg
2/8/2013,78.865
2/11/2013,78.07
2/12/2013,78.0716
2/13/2013,78.49
2/14/2013,79.1525
2/15/2013,78.555
2/19/2013,80.005
2/20/2013,80.165
2/21/2013,79.305
2/22/2013,79.045
2/25/2013,79.05
2/26/2013,77.6725
2/27/2013,76.9
2/28/2013,76.965
3/1/2013,76.1415
3/4/2013,76.675
3/5/2013,77.105
3/6/2013,76.605
3/7/2013,76.225
3/8/2013,76.3951
3/11/2013,77.45
3/12/2013,77.275
3/13/2013,78.085
3/14/2013,78.24
3/15/2013,78.5
3/18/2013,79.88505
3/19/2013,80.35495
3/20/2013,80.25225
3/21/2013,80.285
3/22/2013,79.706
3/25/2013,80.135
3/26/2013,81.085
3/27/2013,81.33005
3/28/2013,82.18
4/1/2013,82.345
4/2/2013,82.11995
4/3/2013,82.225
4/4/2013,82.45
4/5/2013,81.185
4/8/2013,80.75
4/9/2013,79.235
4/10/2013,80.425
4/11/2013,82.09
4/12/2013,82.55
4/15/2013,81.095
4/16/2013,80.385
4/17/2013,79.65
4/18/2013,79.3325
4/19/2013,79.335
4/22/2013,79.35995
4/23/2013,80.38
4/24/2013,80.95
4/25/2013,83.03
4/26/2013,82.865
4/29/2013,83.17
4/30/2013,83.13
5/1/2013,84.205
5/2/2013,84.455
5/3/2013,84.94
5/6/2013,84.54
5/7/2013,85.155
5/8/2013,85.24
5/9/2013,85.145
5/10/2013,85.245
5/13/2013,84.52
5/14/2013,85.595
5/15/2013,85.98
5/16/2013,85.98
5/17/2013,85.985
5/20/2013,86.175
5/21/2013,87.895
5/22/2013,86.44
5/23/2013,84.32
5/24/2013,83.56995
5/28/2013,83.7
5/29/2013,82.645
5/30/2013,82.235
5/31/2013,82.31700000000001
6/3/2013,81.435
6/4/2013,82.635
6/5/2013,82.235
6/6/2013,82.4375
6/7/2013,83.855
6/10/2013,84.175
6/11/2013,83.005
6/12/2013,82.725
6/13/2013,82.755
6/14/2013,82.64
6/17/2013,82.78
6/18/2013,82.925
6/19/2013,83.46
6/20/2013,83.265
6/21/2013,81.825
6/24/2013,80.18
6/25/2013,81.14
6/26/2013,80.26
6/27/2013,80.305
6/28/2013,80.7255
7/1/2013,82.08
7/2/2013,81.85
7/3/2013,81.615
7/5/2013,82.1725
7/8/2013,83.475
7/9/2013,83.65
7/10/2013,82.955
7/11/2013,83.215
7/12/2013,82.8275
7/15/2013,82.805
7/16/2013,82.75
7/17/2013,82.16495
7/18/2013,82.029
7/19/2013,82.375
7/22/2013,82.285
7/23/2013,83.025
7/24/2013,82.11
7/25/2013,81.755
7/26/2013,82.905
7/29/2013,82.405
7/30/2013,82.475
7/31/2013,82.54
8/1/2013,83.095
8/2/2013,83.175
8/5/2013,83.35
8/6/2013,82.96
8/7/2013,82.375
8/8/2013,81.235
8/9/2013,82.15
8/12/2013,82.955
8/13/2013,83.67
8/14/2013,84.09
8/15/2013,82.57
8/16/2013,81.29
8/19/2013,80.848
8/20/2013,81.205
8/21/2013,81.7095
8/22/2013,81.89
8/23/2013,82.47
8/26/2013,83.46
8/27/2013,82.07
8/28/2013,81.345
8/29/2013,81.135
8/30/2013,80.43
9/3/2013,80.37995
9/4/2013,79.695
9/5/2013,80.1
9/6/2013,79.649
9/9/2013,79.635
9/10/2013,80.5925
9/11/2013,81.15575
9/12/2013,80.77
9/13/2013,79.92
9/16/2013,79.94
9/17/2013,79.81
9/18/2013,79.755
9/19/2013,80.73295
9/20/2013,80.955
9/23/2013,80.085
9/24/2013,79.915
9/25/2013,80.77
9/26/2013,81.75
9/27/2013,81.755
9/30/2013,81.98
10/1/2013,83.27
10/2/2013,82.525
10/3/2013,82.045
10/4/2013,82.515
10/7/2013,82.205
10/8/2013,81.77
10/9/2013,80.8445
10/10/2013,81.185
10/11/2013,81.615
10/14/2013,82.81
10/15/2013,82.775
10/16/2013,97.225
10/17/2013,96.895
10/18/2013,98.13
10/21/2013,98.585
10/22/2013,98.82
10/23/2013,99.07
10/24/2013,99.0055
10/25/2013,101.88
10/28/2013,101.835
10/29/2013,100.74
10/30/2013,99.945
10/31/2013,100.09
11/1/2013,98.705
11/4/2013,99.795
11/5/2013,99.4
11/6/2013,99.08
11/7/2013,97.915
11/8/2013,97.305
11/11/2013,98.145
11/12/2013,98.905
11/13/2013,99.5455
11/14/2013,99.045
11/15/2013,99.115
11/18/2013,98.945
11/19/2013,97.66
11/20/2013,97.569
11/21/2013,100.02
11/22/2013,99.7125
11/25/2013,99.785
11/26/2013,101.395
11/27/2013,102.04
11/29/2013,101.56
12/2/2013,102.17
12/3/2013,104.755
12/4/2013,105.98575
12/5/2013,104.81
12/6/2013,105.325
12/9/2013,104.77
12/10/2013,108.38
12/11/2013,108.42
12/12/2013,107.32
12/13/2013,109.37
12/16/2013,109.64
12/17/2013,108.955
12/18/2013,108.22
12/19/2013,108.6144
12/20/2013,109.235
12/23/2013,109.765
12/24/2013,110.26
12/26/2013,110.265
12/27/2013,110.785
12/30/2013,109.67
12/31/2013,110.45
1/2/2014,110.585
1/3/2014,112.455
1/6/2014,112.675
1/7/2014,112.515
1/8/2014,112.7625
1/9/2014,113.465
1/10/2014,114.7185
1/13/2014,114.88
1/14/2014,115.905
1/15/2014,118.125
1/16/2014,117.2
1/17/2014,118.0525
1/21/2014,119.135
1/22/2014,117.72795
1/23/2014,116.41
1/24/2014,116.24
1/27/2014,115.5
1/28/2014,116.44
1/29/2014,115.2
1/30/2014,115.17
1/31/2014,114.865
2/3/2014,112.61399999999999
2/4/2014,111.105
2/5/2014,110.935
2/6/2014,123.545
2/7/2014,126.33
2/10/2014,124.215
2/11/2014,124.505
2/12/2014,125.485
2/13/2014,125.42
2/14/2014,126.555
2/18/2014,127.205
2/19/2014,126.6035
2/20/2014,126.915
2/21/2014,127.895
2/24/2014,127.715
2/25/2014,126.605
2/26/2014,125.66
2/27/2014,125.26
2/28/2014,126.745
3/3/2014,126.155
3/4/2014,128.075
3/5/2014,125.8955
3/6/2014,126.59
3/7/2014,127.295
3/10/2014,126.915
3/11/2014,127.485
3/12/2014,126.135
3/13/2014,125.36
3/14/2014,124.675
3/17/2014,125.68
3/18/2014,125.42
3/19/2014,124.99175
3/20/2014,124.2175
3/21/2014,126.11495
3/24/2014,125.62095
3/25/2014,124.42
3/26/2014,123.595
3/27/2014,123.685
3/28/2014,124.205
3/31/2014,125.68
4/1/2014,127.545
4/2/2014,126.845
4/3/2014,126.44495
4/4/2014,123.67
4/7/2014,119.59
4/8/2014,118.42555
4/9/2014,120.53
4/10/2014,121.61399999999999
4/11/2014,117.41905
4/14/2014,117.155
4/15/2014,117.175
4/16/2014,118.67
4/17/2014,120.705
4/21/2014,120.73700000000001
4/22/2014,123.45
4/23/2014,121.825
4/24/2014,121.79
4/25/2014,121.15
4/28/2014,121.4152
4/29/2014,120.115
4/30/2014,120.4375
5/1/2014,122.46
5/2/2014,122.09
5/5/2014,120.675
5/6/2014,120.71600000000001
5/7/2014,119.88
5/8/2014,121.375
5/9/2014,123.515
5/12/2014,124.96
5/13/2014,124.37899999999999
5/14/2014,123.09
5/15/2014,124.29
5/16/2014,122.1
5/19/2014,122.39
5/20/2014,121.955
5/21/2014,121.865
5/22/2014,122.89
5/23/2014,123.1
5/27/2014,122.635
5/28/2014,120.9
5/29/2014,122.465
5/30/2014,123.315
6/2/2014,123.84525
6/3/2014,124.7925
6/4/2014,125.62
6/5/2014,126.965
6/6/2014,127.89
6/9/2014,127.88
6/10/2014,126.92
6/11/2014,126.1775
6/12/2014,124.71700000000001
6/13/2014,124.1
6/16/2014,124.72
6/17/2014,125.805
6/18/2014,128.61
6/19/2014,128.92
6/20/2014,128.9
6/23/2014,130.0145
6/24/2014,132.29399999999998
6/25/2014,129.775
6/26/2014,130.865
6/27/2014,132.005
6/30/2014,134.5
7/1/2014,135.15
7/2/2014,134.395
7/3/2014,134.666
7/7/2014,134.4375
7/8/2014,132.815
7/9/2014,132.4218
7/10/2014,132.96
7/11/2014,133.03
7/14/2014,134.46
7/15/2014,133.6
7/16/2014,132.347
7/17/2014,130.55
7/18/2014,129.765
7/21/2014,129.74
7/22/2014,126.115
7/23/2014,124.09
7/24/2014,125.965
7/25/2014,125.93495
7/28/2014,124.535
7/29/2014,123.86
7/30/2014,123.755
7/31/2014,122.785
8/1/2014,122.76005
8/4/2014,122.76005
8/5/2014,124.2
8/6/2014,123.75
8/7/2014,122.955
8/8/2014,123.4525
8/11/2014,125.485
8/12/2014,124.545
8/13/2014,124.0655
8/14/2014,129.31
8/15/2014,132.15
8/18/2014,132.6125
8/19/2014,134.16985
8/20/2014,134.415
8/21/2014,135.115
8/22/2014,134.95875
8/25/2014,136.285
8/26/2014,136.2
8/27/2014,136.77
8/28/2014,137.17
8/29/2014,136.835
9/2/2014,137.88
9/3/2014,138.47
9/4/2014,138.765
9/5/2014,137.79995
9/8/2014,137.1445
9/9/2014,136.3175
9/10/2014,135.43
9/11/2014,134.57
9/12/2014,134.245
9/15/2014,133.80505
9/16/2014,134.7875
9/17/2014,135.22
9/18/2014,133.905
9/19/2014,132.555
9/22/2014,130.205
9/23/2014,130.185
9/24/2014,129.855
9/25/2014,129.56
9/26/2014,129.525
9/29/2014,129.62
9/30/2014,130.04995
10/1/2014,130.26
10/2/2014,131.63
10/3/2014,133.8
10/6/2014,135.3
10/7/2014,134.74
10/8/2014,135.31
10/9/2014,134.905
10/10/2014,133.79
10/13/2014,132.48
10/14/2014,132.425
10/15/2014,132.545
10/16/2014,132.775
10/17/2014,134.36
10/20/2014,137.67
10/21/2014,141.205
10/22/2014,140.25
10/23/2014,142.125
10/24/2014,140.8025
10/27/2014,143.19
10/28/2014,144.99
10/29/2014,145.14
10/30/2014,145.605
10/31/2014,146.48
11/3/2014,148.205
11/4/2014,147.92
11/5/2014,149.1975
11/6/2014,142.335
11/7/2014,143.9375
11/10/2014,143.49
11/11/2014,144.81
11/12/2014,145.605
11/13/2014,146.3375
11/14/2014,145.98
11/17/2014,146.12
11/18/2014,145.98
11/19/2014,145.115
11/20/2014,145.165
11/21/2014,145.93
11/24/2014,145.145
11/25/2014,144.775
11/26/2014,145.565
11/28/2014,146.865
12/1/2014,146.95
12/2/2014,147.71
12/3/2014,150.255
12/4/2014,152.095
12/5/2014,153.375
12/8/2014,153.89
12/9/2014,155.33
12/10/2014,157.965
12/11/2014,159.305
12/12/2014,160.455
12/15/2014,161.825
12/16/2014,159.12
12/17/2014,157.785
12/18/2014,160.425
12/19/2014,160.111
12/22/2014,159.725
12/23/2014,161.395
12/24/2014,161.31
12/26/2014,160.55465
12/29/2014,160.93535
12/30/2014,161.04
12/31/2014,160.977
1/2/2015,159.985
1/5/2015,157.44375
1/6/2015,155.595
1/7/2015,158.835
1/8/2015,162.23
1/9/2015,160.005
1/12/2015,159.315
1/13/2015,156.5256
1/14/2015,151.27
1/15/2015,149.845
1/16/2015,148.70005
1/20/2015,150.6
1/21/2015,153.0775
1/22/2015,155.76
1/23/2015,156.345
1/26/2015,157.5
1/27/2015,158.1975
1/28/2015,159.825
1/29/2015,159.28
1/30/2015,159.19
2/2/2015,156.38
2/3/2015,155.91
2/4/2015,155.895
2/5/2015,158.725
2/6/2015,161.325
2/9/2015,160.415
2/10/2015,162.01
2/11/2015,163.26985
2/12/2015,154.0125
2/13/2015,150.515
2/17/2015,150.12
2/18/2015,151.05
2/19/2015,153.704
2/20/2015,153.48
2/23/2015,155.96
2/24/2015,156.5
2/25/2015,156.035
2/26/2015,155.96745
2/27/2015,155.435
3/2/2015,154.67
3/3/2015,155.05
3/4/2015,152.205
3/5/2015,152.08
3/6/2015,150.715
3/9/2015,148.63
3/10/2015,146.375
3/11/2015,146.665
3/12/2015,148.555
3/13/2015,148.49
3/16/2015,150.36
3/17/2015,150.76
3/18/2015,148.36
3/19/2015,148.42
3/20/2015,150.385
3/23/2015,150.855
3/24/2015,150.03
3/25/2015,150.4
3/26/2015,148.515
3/27/2015,150.74
3/30/2015,152.235
3/31/2015,151.025
4/1/2015,146.1475
4/2/2015,144.3325
4/6/2015,145.3
4/7/2015,146.445
4/8/2015,147.6
4/9/2015,148.11
4/10/2015,149.05
4/13/2015,149.835
4/14/2015,148.91
4/15/2015,149.4805
4/16/2015,149.815
4/17/2015,148.865
4/20/2015,151.18
4/21/2015,153.42
4/22/2015,151.555
4/23/2015,150.26
4/24/2015,145.97
4/27/2015,146.765
4/28/2015,144.115
4/29/2015,144.345
4/30/2015,144.055
5/1/2015,144.045
5/4/2015,145.55
5/5/2015,144.575
5/6/2015,143.92
5/7/2015,144.865
5/8/2015,145.685
5/11/2015,145.275
5/12/2015,145.635
5/13/2015,148.06
5/14/2015,149.9825
5/15/2015,150.68
5/18/2015,151.9875
5/19/2015,153.41
5/20/2015,151.935
5/21/2015,151.95
5/22/2015,159.14
5/26/2015,159.13
5/27/2015,157.655
5/28/2015,156.84
5/29/2015,154.44
6/1/2015,153.8
6/2/2015,153.81
6/3/2015,155.82005
6/4/2015,156.3225
6/5/2015,156.945
6/8/2015,157.22
6/9/2015,157.3925
6/10/2015,159.095
6/11/2015,160.38
6/12/2015,160.815
6/15/2015,159.4
6/16/2015,158.73
6/17/2015,159.16
6/18/2015,159.955
6/19/2015,160.715
6/22/2015,161.9175
6/23/2015,164.02
6/24/2015,163.71
6/25/2015,163.78
6/26/2015,164.32
6/29/2015,160.945
6/30/2015,159.38
7/1/2015,161.58
7/2/2015,162.74
7/6/2015,162.82
7/7/2015,163.44
7/8/2015,161.47
7/9/2015,161.6725
7/10/2015,163.97
7/13/2015,167.1525
7/14/2015,168.48
7/15/2015,167.797
7/16/2015,169.045
7/17/2015,168.9625
7/20/2015,169.12
7/21/2015,167.74
7/22/2015,168.34099999999998
7/23/2015,169.67
7/24/2015,168.93
7/27/2015,167.84
7/28/2015,169.215
7/29/2015,171.745
7/30/2015,172.295
7/31/2015,173.53
8/3/2015,173.665
8/4/2015,174.9
8/5/2015,175.655
8/6/2015,173.5675
8/7/2015,172.785
8/10/2015,174.12
8/11/2015,172.645
8/12/2015,170.99
8/13/2015,182.635
8/14/2015,188.4475
8/17/2015,185.59
8/18/2015,184.93
8/19/2015,186.445
8/20/2015,186.01
8/21/2015,180.58
8/24/2015,164.9975
8/25/2015,175.135
8/26/2015,171.8
8/27/2015,174.275
8/28/2015,175.745
8/31/2015,175.645
9/1/2015,172.695
9/2/2015,174.44
9/3/2015,174.87
9/4/2015,172.185
9/8/2015,174.115
9/9/2015,176.375
9/10/2015,174.9
9/11/2015,174.125
9/14/2015,174.76
9/15/2015,175.595
9/16/2015,177.2
9/17/2015,179.28
9/18/2015,175.445
9/21/2015,174.345
9/22/2015,173.77
9/23/2015,175.0175
9/24/2015,174.4035
9/25/2015,177.18
9/28/2015,174.525
9/29/2015,170.855
9/30/2015,187.99
10/1/2015,190.37
10/2/2015,190.025
10/5/2015,192.015
10/6/2015,190.9195
10/7/2015,190.545
10/8/2015,188.805
10/9/2015,188.02
10/12/2015,190.68005
10/13/2015,190.75
10/14/2015,188.08
10/15/2015,189.25
10/16/2015,190.875
10/19/2015,190.91
10/20/2015,192.9025
10/21/2015,193.9175
10/22/2015,192.59
10/23/2015,191.395
10/26/2015,193.0375
10/27/2015,192.636
10/28/2015,193.485
10/29/2015,196.485
10/30/2015,197.95
11/2/2015,199.575
11/3/2015,198.64
11/4/2015,198.295
11/5/2015,199.685
11/6/2015,199.155
11/9/2015,196.32
11/10/2015,194.945
11/11/2015,194.725
11/12/2015,170.615
11/13/2015,163.26
11/16/2015,162.114
11/17/2015,164.875
11/18/2015,163.635
11/19/2015,163.745
11/20/2015,163.825
11/23/2015,163.0
11/24/2015,162.34
11/25/2015,165.36
11/27/2015,163.855
11/30/2015,163.68
12/1/2015,162.575
12/2/2015,160.155
12/3/2015,156.24
12/4/2015,155.255
12/7/2015,153.76
12/8/2015,151.04
12/9/2015,152.955
12/10/2015,152.28
12/11/2015,149.31
12/14/2015,148.12
12/15/2015,154.49
12/16/2015,159.505
12/17/2015,157.45
12/18/2015,151.34005
12/21/2015,149.87
12/22/2015,148.885
12/23/2015,148.305
12/24/2015,149.295
12/28/2015,149.53
12/29/2015,152.145
12/30/2015,152.125
12/31/2015,151.1925
1/4/2016,150.995
1/5/2016,151.84
1/6/2016,147.915
1/7/2016,146.29495
1/8/2016,147.1555
1/11/2016,146.59
1/12/2016,147.3525
1/13/2016,145.325
1/14/2016,141.08
1/15/2016,141.1825
1/19/2016,144.671
1/20/2016,142.2575
1/21/2016,144.33
1/22/2016,144.22
1/25/2016,144.785
1/26/2016,148.735
1/27/2016,152.12
1/28/2016,149.685
1/29/2016,150.205
2/1/2016,153.51
2/2/2016,152.805
2/3/2016,149.485
2/4/2016,146.96
2/5/2016,145.7
2/8/2016,139.58
2/9/2016,141.385
2/10/2016,140.955
2/11/2016,137.18
2/12/2016,139.295
2/16/2016,145.075
2/17/2016,146.0
2/18/2016,142.7
2/19/2016,143.22
2/22/2016,146.7475
2/23/2016,149.355
2/24/2016,148.045
2/25/2016,149.27
2/26/2016,149.895
2/29/2016,149.72
3/1/2016,151.4175
3/2/2016,152.5725
3/3/2016,152.035
3/4/2016,152.72
3/7/2016,151.625
3/8/2016,150.91
3/9/2016,151.92
3/10/2016,154.91495
3/11/2016,157.56375
3/14/2016,158.745
3/15/2016,158.675
3/16/2016,158.59
3/17/2016,157.57
3/18/2016,157.58
3/21/2016,158.065
3/22/2016,158.37
3/23/2016,159.725
3/24/2016,160.995
3/28/2016,161.1325
3/29/2016,161.755
3/30/2016,164.175
3/31/2016,161.48
4/1/2016,160.15505
4/4/2016,160.8475
4/5/2016,159.5
4/6/2016,159.625
4/7/2016,157.33
4/8/2016,156.145
4/11/2016,156.015
4/12/2016,155.05
4/13/2016,159.18
4/14/2016,160.6275
4/15/2016,161.02
4/18/2016,161.28
4/19/2016,161.50975
4/20/2016,159.865
4/21/2016,157.605
4/22/2016,157.07
4/25/2016,156.97
4/26/2016,157.475
4/27/2016,158.51
4/28/2016,156.93
4/29/2016,155.32
5/2/2016,154.72515
5/3/2016,155.44
5/4/2016,154.99375
5/5/2016,150.655
5/6/2016,149.16
5/9/2016,150.735
5/10/2016,152.475
5/11/2016,150.115
5/12/2016,149.51
5/13/2016,147.6025
5/16/2016,147.03
5/17/2016,145.12
5/18/2016,143.685
5/19/2016,138.6
5/20/2016,144.97
5/23/2016,146.3
5/24/2016,147.425
5/25/2016,151.565
5/26/2016,155.145
5/27/2016,156.83
5/31/2016,155.35
6/1/2016,152.91
6/2/2016,151.87
6/3/2016,151.2
6/6/2016,149.615
6/7/2016,150.75
6/8/2016,152.8325
6/9/2016,155.675
6/10/2016,154.17
6/13/2016,153.78
6/14/2016,152.345
6/15/2016,153.93005
6/16/2016,152.98
6/17/2016,153.705
6/20/2016,156.305
6/21/2016,155.1
6/22/2016,154.17
6/23/2016,154.41
6/24/2016,153.4425
6/27/2016,153.95
6/28/2016,155.72
6/29/2016,159.905
6/30/2016,160.6
7/1/2016,163.2392
7/5/2016,161.98
7/6/2016,161.17
7/7/2016,161.32875
7/8/2016,163.47
7/11/2016,164.94995
7/12/2016,163.735
7/13/2016,162.63495
7/14/2016,163.95
7/15/2016,165.09
7/18/2016,164.435
7/19/2016,162.715
7/20/2016,164.015
7/21/2016,163.67600000000002
7/22/2016,165.215
7/25/2016,166.07495
7/26/2016,166.8925
7/27/2016,166.065
7/28/2016,168.64
7/29/2016,169.395
8/1/2016,168.82
8/2/2016,166.915
8/3/2016,166.82505
8/4/2016,169.345
8/5/2016,171.075
8/8/2016,170.03
8/9/2016,167.925
8/10/2016,166.525
8/11/2016,168.54
8/12/2016,164.995
8/15/2016,167.725
8/16/2016,162.87
8/17/2016,158.6725
8/18/2016,157.7125
8/19/2016,158.345
8/22/2016,159.5
8/23/2016,158.835
8/24/2016,161.45
8/25/2016,159.93
8/26/2016,158.41
8/29/2016,157.55
8/30/2016,157.03
8/31/2016,156.875
9/1/2016,158.685
9/2/2016,158.85
9/6/2016,159.79645
9/7/2016,161.1501
9/8/2016,159.1755
9/9/2016,155.35
9/12/2016,152.65
9/13/2016,152.335
9/14/2016,151.315
9/15/2016,149.78
9/16/2016,148.36
9/19/2016,148.205
9/20/2016,147.27
9/21/2016,145.86
9/22/2016,148.3701
9/23/2016,149.025
9/26/2016,149.02
9/27/2016,151.645
9/28/2016,150.015
9/29/2016,147.505
9/30/2016,147.8825
10/3/2016,147.91
10/4/2016,147.1
10/5/2016,148.45
10/6/2016,148.255
10/7/2016,148.45
10/10/2016,148.8125
10/11/2016,147.46
10/12/2016,147.82
10/13/2016,146.355
10/14/2016,147.43
10/17/2016,144.93
10/18/2016,142.735
10/19/2016,141.51
10/20/2016,141.8
10/21/2016,140.98
10/24/2016,142.09
10/25/2016,142.175
10/26/2016,143.675
10/27/2016,141.76
10/28/2016,139.8
10/31/2016,139.8225
11/1/2016,139.73
11/2/2016,138.56
11/3/2016,139.26
11/4/2016,137.88
11/7/2016,137.025
11/8/2016,137.55
11/9/2016,137.31
11/10/2016,143.65
11/11/2016,145.43
11/14/2016,144.6
11/15/2016,164.2139
11/16/2016,162.345
11/17/2016,164.655
11/18/2016,164.4775
11/21/2016,164.695
11/22/2016,169.025
11/23/2016,170.08
11/25/2016,171.075
11/28/2016,172.43
11/29/2016,171.595
11/30/2016,169.54
12/1/2016,169.445
12/2/2016,170.93
12/5/2016,170.96
12/6/2016,171.805
12/7/2016,174.69
12/8/2016,176.505
12/9/2016,175.64
12/12/2016,173.705
12/13/2016,173.0475
12/14/2016,172.09
12/15/2016,172.23
12/16/2016,172.58
12/19/2016,173.58
12/20/2016,174.275
12/21/2016,174.3893
12/22/2016,171.55
12/23/2016,171.0375
12/27/2016,171.735
12/28/2016,171.6375
12/29/2016,170.27
12/30/2016,170.3
1/3/2017,170.335
1/4/2017,171.7706
1/5/2017,171.645
1/6/2017,170.645
1/9/2017,169.3
1/10/2017,170.275
1/11/2017,172.955
1/12/2017,173.305
1/13/2017,174.69
1/17/2017,175.22
1/18/2017,172.97
1/19/2017,173.02
1/20/2017,171.66
1/23/2017,166.45
1/24/2017,169.38
1/25/2017,168.655
1/26/2017,167.38
1/27/2017,165.11
1/30/2017,164.12
1/31/2017,163.475
2/1/2017,162.295
2/2/2017,161.525
2/3/2017,162.81
2/6/2017,161.47799999999998
2/7/2017,159.92
2/8/2017,160.9525
2/9/2017,163.24
2/10/2017,164.53
2/13/2017,163.575
2/14/2017,163.32
2/15/2017,164.1525
2/16/2017,162.39
2/17/2017,160.815
2/21/2017,165.1175
2/22/2017,158.63
2/23/2017,158.16
2/24/2017,156.84
2/27/2017,156.375
2/28/2017,156.935
3/1/2017,157.115
3/2/2017,157.27
3/3/2017,156.2175
3/6/2017,155.1425
3/7/2017,153.21
3/8/2017,154.28
3/9/2017,154.845
3/10/2017,154.6
3/13/2017,153.475
3/14/2017,153.77
3/15/2017,152.375
3/16/2017,152.79995
3/17/2017,152.075
3/20/2017,153.045
3/21/2017,151.735
3/22/2017,151.26
3/23/2017,151.25
3/24/2017,150.175
3/27/2017,147.4725
3/28/2017,147.62
3/29/2017,148.84
3/30/2017,148.995
3/31/2017,148.39
4/3/2017,146.38
4/4/2017,143.945
4/5/2017,143.615
4/6/2017,143.50625
4/7/2017,142.735
4/10/2017,142.81625
4/11/2017,142.705
4/12/2017,141.99
4/13/2017,141.865
4/17/2017,140.815
4/18/2017,140.965
4/19/2017,143.15
4/20/2017,144.955
4/21/2017,146.025
4/24/2017,147.135
4/25/2017,145.6
4/26/2017,146.155
4/27/2017,144.62
4/28/2017,141.545
5/1/2017,141.755
5/2/2017,141.27
5/3/2017,142.695
5/4/2017,143.83
5/5/2017,144.31
5/8/2017,145.91
5/9/2017,145.95
5/10/2017,145.705
5/11/2017,144.59625
5/12/2017,145.075
5/15/2017,145.822
5/16/2017,144.38
5/17/2017,144.0101
5/18/2017,146.84045
5/19/2017,149.815
5/22/2017,149.275
5/23/2017,141.485
5/24/2017,133.6
5/25/2017,131.73335
5/26/2017,133.57
5/30/2017,133.99
5/31/2017,133.51
6/1/2017,135.4235
6/2/2017,137.18
6/5/2017,135.865
6/6/2017,132.47
6/7/2017,132.155
6/8/2017,128.6
6/9/2017,126.06
6/12/2017,129.46
6/13/2017,130.15
6/14/2017,131.03
6/15/2017,130.455
6/16/2017,129.28
6/19/2017,129.82495
6/20/2017,125.96
6/21/2017,121.26
6/22/2017,121.1725
6/23/2017,120.09
6/26/2017,122.34
6/27/2017,122.2925
6/28/2017,118.615
6/29/2017,116.935
6/30/2017,116.925
7/3/2017,117.5
7/5/2017,105.415
7/6/2017,104.03995
7/7/2017,102.05
7/10/2017,100.945
7/11/2017,100.6517
7/12/2017,101.465
7/13/2017,102.2375
7/14/2017,102.655
7/17/2017,102.305
7/18/2017,100.99
7/19/2017,100.93
7/20/2017,101.975
7/21/2017,104.41
7/24/2017,104.16
7/25/2017,104.715
7/26/2017,106.3305
7/27/2017,108.89
7/28/2017,110.22
7/31/2017,111.7268
8/1/2017,114.17
8/2/2017,114.17
8/3/2017,112.925
8/4/2017,111.075
8/7/2017,109.685
8/8/2017,109.55
8/9/2017,109.345
8/10/2017,107.035
8/11/2017,106.355
8/14/2017,108.07
8/15/2017,87.605
8/16/2017,89.70005
8/17/2017,92.835
8/18/2017,93.565
8/21/2017,94.735
8/22/2017,95.91
8/23/2017,94.53
8/24/2017,93.805
8/25/2017,95.42
8/28/2017,95.13
8/29/2017,94.205
8/30/2017,96.6
8/31/2017,97.725
9/1/2017,98.54
9/5/2017,97.6
9/6/2017,96.36
9/7/2017,94.55
9/8/2017,93.755
9/11/2017,94.195
9/12/2017,94.705
9/13/2017,98.695
9/14/2017,99.545
9/15/2017,99.015
9/18/2017,99.39
9/19/2017,97.475
9/20/2017,94.885
9/21/2017,94.08
9/22/2017,94.79299999999999
9/25/2017,96.97
9/26/2017,97.665
9/27/2017,98.43
9/28/2017,99.415
9/29/2017,99.11385
10/2/2017,99.065
10/3/2017,99.1675
10/4/2017,96.445
10/5/2017,94.725
10/6/2017,94.68
10/9/2017,92.73
10/10/2017,91.7
10/11/2017,90.67
10/12/2017,87.995
10/13/2017,86.1363
10/16/2017,85.4025
10/17/2017,87.585
10/18/2017,88.16
10/19/2017,86.65
10/20/2017,86.825
10/23/2017,86.51
10/24/2017,84.715
10/25/2017,82.94
10/26/2017,84.475
10/27/2017,83.7275
10/30/2017,81.63
10/31/2017,82.41615
11/1/2017,81.71
11/2/2017,81.56
11/3/2017,81.325
11/6/2017,81.06
11/7/2017,79.865
11/8/2017,79.715
11/9/2017,80.115
11/10/2017,80.995
11/13/2017,81.64
11/14/2017,98.82
11/15/2017,93.43
11/16/2017,91.005
11/17/2017,90.285
11/20/2017,89.96
11/21/2017,89.925
11/22/2017,89.565
11/24/2017,89.43
11/27/2017,89.91195
11/28/2017,91.27
11/29/2017,96.8875
11/30/2017,100.16
12/1/2017,99.43
12/4/2017,102.98
12/5/2017,103.905
12/6/2017,99.445
12/7/2017,97.47
12/8/2017,99.0
12/11/2017,100.39
12/12/2017,103.635
12/13/2017,102.79
12/14/2017,101.8355
12/15/2017,100.945
12/18/2017,101.875
12/19/2017,101.1266
